<svg xmlns="http://www.w3.org/2000/svg" data-name="Layer 1" viewBox="0 0 100 125" x="0px" y="0px">
    <title>Mail</title>
    <path fill="#fff" d="M92,24.73a.88.88,0,0,0,0-.17l-.06-.19a1.46,1.46,0,0,0-.07-.19,1.09,1.09,0,0,0-.08-.15,2,2,0,0,0-.12-.19s0,0,0,0l-.09-.09a1.07,1.07,0,0,0-.14-.16l-.15-.13-.16-.11-.17-.09-.17-.08-.19-.06-.19,0-.21,0H9.86l-.2,0-.2,0-.17.06-.19.08-.16.09-.16.12a1.58,1.58,0,0,0-.15.12,1.07,1.07,0,0,0-.14.16l-.09.09s0,0,0,0a2,2,0,0,0-.12.19,1.09,1.09,0,0,0-.08.15,1.46,1.46,0,0,0-.07.19l-.06.19a.88.88,0,0,0,0,.17L8,25V75a2,2,0,0,0,2,2H90a2,2,0,0,0,2-2V25ZM84,27,50,52.5,16,27Zm4,46H12V29L48.8,56.6a2,2,0,0,0,2.4,0L88,29Z"/>
</svg>