<?xml version="1.0" encoding="utf-8"?>
<!-- Generator: Adobe Illustrator 19.0.0, SVG Export Plug-In . SVG Version: 6.00 Build 0)  -->
<svg version="1.1" id="Layer_1" xmlns="http://www.w3.org/2000/svg" xmlns:xlink="http://www.w3.org/1999/xlink" x="0px" y="0px"
	 viewBox="-261 267 52 52" style="enable-background:new -261 267 52 52;" xml:space="preserve">
<g>
	<g>
		<path d="M-213.5,271h-3.5v-2c0-1.1-0.9-2-2-2s-2,0.9-2,2v2h-28v-2c0-1.1-0.9-2-2-2s-2,0.9-2,2v2h-3.5c-2.5,0-4.5,2-4.5,4.5v39
			c0,2.5,2,4.5,4.5,4.5h43c2.5,0,4.5-2,4.5-4.5v-39C-209,273-211,271-213.5,271z M-256.5,275h3.5v2c0,1.1,0.9,2,2,2s2-0.9,2-2v-2h28
			v2c0,1.1,0.9,2,2,2s2-0.9,2-2v-2h3.5c0.3,0,0.5,0.2,0.5,0.5v5.5h-44v-5.5C-257,275.2-256.8,275-256.5,275z M-213.5,315h-43
			c-0.3,0-0.5-0.2-0.5-0.5V285h44v29.5C-213,314.8-213.2,315-213.5,315z"/>
		<circle cx="-243" cy="291" r="2"/>
		<circle cx="-235" cy="291" r="2"/>
		<circle cx="-227" cy="291" r="2"/>
		<circle cx="-219" cy="291" r="2"/>
		<circle cx="-251" cy="299" r="2"/>
		<circle cx="-243" cy="299" r="2"/>
		<circle cx="-235" cy="299" r="2"/>
		<circle cx="-227" cy="299" r="2"/>
		<circle cx="-219" cy="299" r="2"/>
		<circle cx="-251" cy="307" r="2"/>
		<circle cx="-243" cy="307" r="2"/>
		<circle cx="-235" cy="307" r="2"/>
	</g>
</g>
</svg>
