{
  "count": 51,
  "next": "http://localhost:8000/api/v1/blog/post/?page=2&page_size=5",
  "previous": null,
  "results": [
    {
      "id": 51,
      "topic": {
        "name": "Your pension",
        "slug": "your-pension"
      },
      "author": {
        "name": "default",
        "bio": null,
        "photo": null
      },
      "revisor": {
        "name": "default",
        "bio": null,
        "photo": null
      },
      "created_at": "2018-11-06T10:00:44.076236Z",
      "updated_at": "2018-11-06T10:00:44.076268Z",
      "title": "A generated post 49",
      "slug": "a-generated-post-49",
      "thumbnail": "http://localhost:8000/media/media/blog/RHAS-1900-970_copy.jpg",
      "content": "<h1>Mystery Math Whiz and Novelist Advance Permutation Problem</h1>\r\n\r\n<p>On September 16, 2011, an anime fan posted a math question to the online bulletin board 4chan about the cult classic television series <em>The Melancholy of Haruhi Suzumiya</em>. Season one of the show, which involves time travel, had originally aired in nonchronological order, and a re-broadcast and a DVD version had each further rearranged the episodes. Fans were arguing online about the best order to watch the episodes, and the 4chan poster wondered: If viewers wanted to see the series in every possible order, what is the shortest list of episodes they’d have to watch?</p>\r\n<p>In less than an hour, an anonymous person offered an answer — not a complete solution, but a lower bound on the number of episodes required. The argument, which covered series with any number of episodes, showed that for the 14-episode first season of <em>Haruhi</em>, viewers would have to watch at least 93,884,313,611 episodes to see all possible orderings. “Please look over [the proof] for any loopholes I might have missed,” the anonymous poster wrote.</p>\r\n<p>The proof slipped under the radar of the mathematics community for seven years — apparently only one professional mathematician spotted it at the time, and he didn’t check it carefully. But in a plot twist last month, the Australian science fiction novelist <a href=\"https://www.goodreads.com/author/show/32699.Greg_Egan\" target=\"_blank\">Greg Egan</a> proved a new <a href=\"http://www.gregegan.net/SCIENCE/Superpermutations/Superpermutations.html\" target=\"_blank\">upper bound</a> on the number of episodes required. Egan’s discovery renewed interest in the problem and drew attention to the lower bound posted anonymously in 2011. Both proofs are now being hailed as significant advances on a puzzle mathematicians have been studying for at least 25 years.</p>\r\n<p>Mathematicians quickly verified Egan’s upper bound, which, like the lower bound, applies to series of any length. Then Robin Houston, a mathematician at the data visualization firm Kiln, and <a href=\"http://jaypantone.com/\" target=\"_blank\">Jay Pantone</a> of Marquette University in Milwaukee independently verified the work of the anonymous 4chan poster. “It took a lot of work to try to figure out whether or not it was correct,” Pantone said, since the key ideas hadn’t been expressed particularly clearly.</p>\r\n<p>Now, Houston and Pantone, joined by <a href=\"https://people.clas.ufl.edu/vatter/\" target=\"_blank\">Vince Vatter</a> of the University of Florida in Gainesville, have written up the formal argument. In <a href=\"https://docs.google.com/viewer?a=v&amp;pid=forums&amp;srcid=MTUwMTUxMjExNDk4NTk5NjY5OTkBMDMxNDgwMTA5ODA5OTYyNzcyNDQBVF9leXJHY19Dd0FKATAuMQEBdjI&amp;authuser=0\" target=\"_blank\">their paper</a>, they list the first author as “Anonymous 4chan Poster.”</p>\r\n<p>“It’s a weird situation that this very elegant proof of something that wasn’t previously known was posted in such an unlikely place,” Houston said.</p>\r\n<h2>Permutation Cities</h2>\r\n<p>If a television series has just three episodes, there are six possible orders in which to view them: 123, 132, 213, 231, 312 and 321. You could string these six sequences together to give a list of 18 episodes that includes every ordering, but there’s a much more efficient way to do it: 123121321. A sequence like this one that contains every possible rearrangement (or permutation) of a collection of <em>n</em> symbols is called a “superpermutation.”</p>\r\n<p>In 1993, <a href=\"http://eldar.mathstat.uoguelph.ca/dashlock/\" target=\"_blank\">Daniel Ashlock</a> and Jenett Tillotson <a href=\"https://zbmath.org/?format=complete&amp;q=an:0801.05004\" target=\"_blank\">observed</a> that if you look at the shortest superpermutations for different values of <em>n</em>, a pattern quickly seems to emerge involving factorials — those numbers, written in the form <em>n</em>!, that involve multiplying together all the numbers up to <em>n</em> (for example, 4! = 4 × 3&nbsp; × 2 × 1).</p>\r\n<div id=\"component-5be15ae5c5df7\"><aside data-reactroot=\"\" class=\"post__aside mb2 relative mha hide-on-print post__aside--right hide-on-print\"><div class=\"post__aside__pullquote align-c relative align-c\"><div class=\"pullquote theme__text mb2 align-c\"><div class=\"mb1\"><p>It’s a weird situation that this very elegant proof of something that wasn’t previously known was posted in such an unlikely place.</p>\r\n</div></div><cite class=\"o6 block align-c\"><p>Robin Houston</p>\r\n</cite><!-- react-text: 6 --><!-- /react-text --></div></aside></div>\r\n<p>If your series has just one episode, the shortest superpermutation has length 1! (also known as plain old 1). For a two-episode series, the shortest superpermutation (121) has length 2! + 1!. For three episodes (the example we looked at above), the length works out to 3! + 2! + 1!, and for four episodes (123412314231243121342132413214321), it is 4! + 3! + 2! + 1!. The factorial rule for superpermutations became conventional wisdom (even though no one could prove it was true for every value of <em>n</em>), and mathematicians later confirmed it for <em>n&nbsp;</em>= 5.</p>\r\n<p>Then in 2014, Houston startled mathematicians by <a href=\"https://arxiv.org/abs/1408.5108\" target=\"_blank\">showing that for <em>n&nbsp;</em>= 6</a>, the pattern breaks down. The factorial rule predicts that to watch six episodes in every possible order should require 873 episodes, but Houston found a way to do it in 872. And since there is a simple way to convert a short superpermutation on <em>n</em> symbols into a short superpermutation on <em>n&nbsp;</em>+ 1 symbols, Houston’s example meant that the factorial rule fails for every value of <em>n</em> above 6 too.</p>\r\n<p>Houston’s construction works by translating the superpermutation problem into the famous <a href=\"https://www.quantamagazine.org/tag/traveling-salesman-problem/\">traveling salesman problem</a>, which looks for the shortest route through a collection of cities. More specifically, superpermutations are connected to the <a href=\"https://www.quantamagazine.org/one-way-salesman-finds-fast-path-home-20171005/\">“asymmetric” traveling salesman problem</a>, in which each path between two cities has a cost (which is not necessarily the same in both directions), and the goal is to find the least expensive route through all the cities.</p>\r\n<p>The translation is simple: Think of each permutation as a “city” and imagine a path from each permutation to each other permutation. In the superpermutation problem, we want the shortest possible sequence of digits that lists all the permutations, so the goal is to travel through the permutations in a way that adds as few digits to the starting permutation as possible. So we declare the cost of each path to be simply the number of digits we have to attach to the end of the first permutation to get the second one. In the <em>n&nbsp;</em>= 3 example, for instance, the path from 231 to 312 costs $1, since we just have to add a 2 to the end of 231 to get 312, while the path from 231 to 132 costs $2, since we have to add a 32. With this setup, the least-expensive path through the cities corresponds directly to the shortest superpermutation.</p>\r\n<div id=\"component-5be15ae5c71cb\"><figure data-reactroot=\"\" class=\"mb2 mt1\"><div class=\"relative image mx0\" style=\"padding-top: 190.687%;\"><picture><div><!--[if IE 9]><video style=\"display: none;\"><![endif]--></div><div><!--[if IE 9]></video><![endif]--></div><img class=\"block mxa fit-x fill-h fill-v absolute fit-l fit-t vertical\" alt=\"\" style=\"max-width: 902px;\"></picture><noscript><img class=\"block fit-x fill-h fill-v is-loaded mxa\" alt=\"\" src=\"https://d2r55xnwy6nx47.cloudfront.net/uploads/2018/11/Permutations_560-902x1720.jpg\" style=\"max-width:902px;\"/></noscript></div><figcaption class=\"image__meta mt1\"><!-- react-text: 9 --><!-- /react-text --><div class=\"attribution theme__anchors--solid wysiwyg pangram h6 mb1 fill-h post__aside__attribution\"><p>Lucy Reading-Ikkanda/Quanta Magazine</p>\r\n</div></figcaption></figure></div>\r\n<p>This translation meant that Houston could turn the power of traveling salesman algorithms on the superpermutation problem. The traveling salesman problem is famous as an NP-hard problem, meaning that there’s no efficient algorithm that can solve all cases of it. But there are algorithms that can solve some cases efficiently, and other algorithms that produce good approximate solutions. Houston used one of the latter to produce his 872-digit superpermutation.</p>\r\n<p>Since he produced only an approximate solution, it might not be the very best superpermutation. Mathematicians are now conducting a giant computer search for the shortest superpermutation on six symbols, Pantone said. “We know our search will finish in finite time, but don’t know if that’s one week or a million years,” he said. “There’s no progress bar.”</p>\r\n<h2>The Wrong Order</h2>\r\n<p>By the time of Houston’s work, the anonymous 4chan post had been sitting in its corner of the internet for nearly three years. One mathematician, <a href=\"http://www.njohnston.ca/\" target=\"_blank\">Nathaniel Johnston</a> of Mount Allison University, had noticed a copy of the post on a different website a few days after it was posted — not because he was an anime fan, but because he had typed an assortment of superpermutation-related search terms into Google.</p>\r\n<div id=\"component-5be15ae5c7443\"><aside data-reactroot=\"\" class=\"post__aside mb2 relative mha hide-on-print post__aside--right hide-on-print\"><div class=\"post__aside__pullquote align-c relative align-c\"><div class=\"pullquote theme__text mb2 align-c\"><div class=\"mb1\"><p>I’ve never stopped being interested in [mathematics].</p>\r\n</div></div><cite class=\"o6 block align-c\"><p>Greg Egan</p>\r\n</cite><!-- react-text: 6 --><!-- /react-text --></div></aside></div>\r\n<p>Johnston read the argument and thought it seemed plausible, but he didn’t invest much effort in checking it carefully. At the time, mathematicians believed that the factorial formula for superpermutations was probably correct, and when you think you know the exact answer to a question, a lower bound isn’t very interesting. In other words, the superpermutation research episodes were playing out of order.</p>\r\n<p>Johnston later mentioned the lower bound on a <a href=\"http://www.njohnston.ca/2013/04/the-minimal-superpermutation-problem/\" target=\"_blank\">couple</a> of <a href=\"https://oeis.org/A180632\" target=\"_blank\">websites</a>, but “I don’t think anyone really gave it any particular heed,” Houston said.</p>\r\n<p>Then on September 26 of this year, the mathematician <a href=\"http://math.ucr.edu/home/baez/\" target=\"_blank\">John Baez</a> of the University of California, Riverside, <a href=\"https://twitter.com/johncarlosbaez/status/1045084142151450624\" target=\"_blank\">posted on Twitter</a> about Houston’s 2014 finding, as part of a series of tweets about apparent mathematical patterns that fail. His tweet caught the eye of Egan, who was a mathematics major decades ago, before he launched an award-winning career as a science fiction novelist (his breakthrough 1994 novel, in a happy coincidence, was called <em>Permutation City</em>). “I’ve never stopped being interested in [mathematics],” Egan wrote by email.</p>\r\n<p>Egan wondered if it was possible to construct superpermutations even shorter than Houston’s. He scoured the literature for papers on how to construct short paths through permutation networks, and after a few weeks found exactly what he needed. Within a day or two, he had come up with a new upper bound on the length of the shortest superpermutation for <em>n</em> symbols: <em>n</em>! + (<em>n&nbsp;–&nbsp;</em>1)! + (<em>n&nbsp;–&nbsp;</em>2)! + (<em>n&nbsp;–</em>&nbsp;3)! + <em>n&nbsp;–&nbsp;</em>3. It’s similar to the old factorial formula, but with many terms removed.</p>\r\n<p>“It absolutely smashed the [previous] upper bound,” Houston said.</p>\r\n<p>The anonymous 4chan poster’s lower bound, meanwhile, was tantalizingly close to the new upper bound: It works out to <em>n</em>! + (<em>n&nbsp;–&nbsp;</em>1)! + (<em>n&nbsp;–&nbsp;</em>2)! + <em>n&nbsp;–&nbsp;</em>3. When Egan’s result became public, Johnston reminded other mathematicians about the anonymous poster’s proof, and Houston and Pantone soon showed it was correct. As with Houston’s work, the new lower and upper bounds both come at superpermutations via the traveling salesman problem: The lower bound shows that a route through all the cities must travel along some minimum number of paths that cost more than $1, while the upper bound constructs a specific route for each <em>n</em> that uses only $1 and $2 connections.</p>\r\n<div id=\"component-5be15ae5c7d19\"><aside data-reactroot=\"\" class=\"post__aside mb2 relative hide-on-print post__aside--right hide-on-print\"><h3 class=\"mv0 h5 bold uppercase kern\">Related:</h3><hr class=\"mt1 o2\"><ol class=\"post__aside__list theme__anchors--none pt05\"><li class=\"mv075 flex\"><h5 class=\"mt0 mb025 medium\"><a class=\"theme__accent theme__text-hover\" href=\"/decades-old-graph-problem-yields-to-amateur-mathematician-20180417/\"><span>Decades-Old Graph Problem Yields to Amateur Mathematician</span></a></h5></li><li class=\"mv075 flex\"><h5 class=\"mt0 mb025 medium\"><a class=\"theme__accent theme__text-hover\" href=\"/gunter-ziegler-and-martin-aigner-seek-gods-perfect-math-proofs-20180319/\"><span>In Search of God’s Perfect Proofs</span></a></h5></li><li class=\"mv075 flex\"><h5 class=\"mt0 mb025 medium\"><a class=\"theme__accent theme__text-hover\" href=\"/pentagon-tiling-proof-solves-century-old-math-problem-20170711/\"><span>Pentagon Tiling Proof Solves Century-Old Math Problem</span></a></h5></li></ol></aside></div>\r\n<p>Researchers are now trying to bring the upper and lower bounds together to find a single formula that solves the superpermutation problem. “Probably people are eventually going to completely nail down this puzzle,” Baez predicted. “It’s looking good now.”</p>\r\n<p>For <em>Haruhi</em> fans, Egan’s construction gives explicit instructions for how to watch all possible orderings of season one in just 93,924,230,411 episodes. Viewers could start binge-watching immediately, or they could wait and see whether mathematicians can whittle this number down. The anonymous poster’s lower bound proves that this whittling down couldn’t possibly save more than about 40 million episodes — but that’s enough to get a nice start on season two.</p>",
      "read_in": 3
    },
    {
      "id": 50,
      "topic": {
        "name": "Your pension",
        "slug": "your-pension"
      },
      "author": {
        "name": "default",
        "bio": null,
        "photo": null
      },
      "revisor": {
        "name": "default",
        "bio": null,
        "photo": null
      },
      "created_at": "2018-11-06T10:00:44.073251Z",
      "updated_at": "2018-11-06T10:00:44.073289Z",
      "title": "A generated post 48",
      "slug": "a-generated-post-48",
      "thumbnail": "http://localhost:8000/media/media/blog/RHAS-1900-970_copy.jpg",
      "content": "<h1>Mystery Math Whiz and Novelist Advance Permutation Problem</h1>\r\n\r\n<p>On September 16, 2011, an anime fan posted a math question to the online bulletin board 4chan about the cult classic television series <em>The Melancholy of Haruhi Suzumiya</em>. Season one of the show, which involves time travel, had originally aired in nonchronological order, and a re-broadcast and a DVD version had each further rearranged the episodes. Fans were arguing online about the best order to watch the episodes, and the 4chan poster wondered: If viewers wanted to see the series in every possible order, what is the shortest list of episodes they’d have to watch?</p>\r\n<p>In less than an hour, an anonymous person offered an answer — not a complete solution, but a lower bound on the number of episodes required. The argument, which covered series with any number of episodes, showed that for the 14-episode first season of <em>Haruhi</em>, viewers would have to watch at least 93,884,313,611 episodes to see all possible orderings. “Please look over [the proof] for any loopholes I might have missed,” the anonymous poster wrote.</p>\r\n<p>The proof slipped under the radar of the mathematics community for seven years — apparently only one professional mathematician spotted it at the time, and he didn’t check it carefully. But in a plot twist last month, the Australian science fiction novelist <a href=\"https://www.goodreads.com/author/show/32699.Greg_Egan\" target=\"_blank\">Greg Egan</a> proved a new <a href=\"http://www.gregegan.net/SCIENCE/Superpermutations/Superpermutations.html\" target=\"_blank\">upper bound</a> on the number of episodes required. Egan’s discovery renewed interest in the problem and drew attention to the lower bound posted anonymously in 2011. Both proofs are now being hailed as significant advances on a puzzle mathematicians have been studying for at least 25 years.</p>\r\n<p>Mathematicians quickly verified Egan’s upper bound, which, like the lower bound, applies to series of any length. Then Robin Houston, a mathematician at the data visualization firm Kiln, and <a href=\"http://jaypantone.com/\" target=\"_blank\">Jay Pantone</a> of Marquette University in Milwaukee independently verified the work of the anonymous 4chan poster. “It took a lot of work to try to figure out whether or not it was correct,” Pantone said, since the key ideas hadn’t been expressed particularly clearly.</p>\r\n<p>Now, Houston and Pantone, joined by <a href=\"https://people.clas.ufl.edu/vatter/\" target=\"_blank\">Vince Vatter</a> of the University of Florida in Gainesville, have written up the formal argument. In <a href=\"https://docs.google.com/viewer?a=v&amp;pid=forums&amp;srcid=MTUwMTUxMjExNDk4NTk5NjY5OTkBMDMxNDgwMTA5ODA5OTYyNzcyNDQBVF9leXJHY19Dd0FKATAuMQEBdjI&amp;authuser=0\" target=\"_blank\">their paper</a>, they list the first author as “Anonymous 4chan Poster.”</p>\r\n<p>“It’s a weird situation that this very elegant proof of something that wasn’t previously known was posted in such an unlikely place,” Houston said.</p>\r\n<h2>Permutation Cities</h2>\r\n<p>If a television series has just three episodes, there are six possible orders in which to view them: 123, 132, 213, 231, 312 and 321. You could string these six sequences together to give a list of 18 episodes that includes every ordering, but there’s a much more efficient way to do it: 123121321. A sequence like this one that contains every possible rearrangement (or permutation) of a collection of <em>n</em> symbols is called a “superpermutation.”</p>\r\n<p>In 1993, <a href=\"http://eldar.mathstat.uoguelph.ca/dashlock/\" target=\"_blank\">Daniel Ashlock</a> and Jenett Tillotson <a href=\"https://zbmath.org/?format=complete&amp;q=an:0801.05004\" target=\"_blank\">observed</a> that if you look at the shortest superpermutations for different values of <em>n</em>, a pattern quickly seems to emerge involving factorials — those numbers, written in the form <em>n</em>!, that involve multiplying together all the numbers up to <em>n</em> (for example, 4! = 4 × 3&nbsp; × 2 × 1).</p>\r\n<div id=\"component-5be15ae5c5df7\"><aside data-reactroot=\"\" class=\"post__aside mb2 relative mha hide-on-print post__aside--right hide-on-print\"><div class=\"post__aside__pullquote align-c relative align-c\"><div class=\"pullquote theme__text mb2 align-c\"><div class=\"mb1\"><p>It’s a weird situation that this very elegant proof of something that wasn’t previously known was posted in such an unlikely place.</p>\r\n</div></div><cite class=\"o6 block align-c\"><p>Robin Houston</p>\r\n</cite><!-- react-text: 6 --><!-- /react-text --></div></aside></div>\r\n<p>If your series has just one episode, the shortest superpermutation has length 1! (also known as plain old 1). For a two-episode series, the shortest superpermutation (121) has length 2! + 1!. For three episodes (the example we looked at above), the length works out to 3! + 2! + 1!, and for four episodes (123412314231243121342132413214321), it is 4! + 3! + 2! + 1!. The factorial rule for superpermutations became conventional wisdom (even though no one could prove it was true for every value of <em>n</em>), and mathematicians later confirmed it for <em>n&nbsp;</em>= 5.</p>\r\n<p>Then in 2014, Houston startled mathematicians by <a href=\"https://arxiv.org/abs/1408.5108\" target=\"_blank\">showing that for <em>n&nbsp;</em>= 6</a>, the pattern breaks down. The factorial rule predicts that to watch six episodes in every possible order should require 873 episodes, but Houston found a way to do it in 872. And since there is a simple way to convert a short superpermutation on <em>n</em> symbols into a short superpermutation on <em>n&nbsp;</em>+ 1 symbols, Houston’s example meant that the factorial rule fails for every value of <em>n</em> above 6 too.</p>\r\n<p>Houston’s construction works by translating the superpermutation problem into the famous <a href=\"https://www.quantamagazine.org/tag/traveling-salesman-problem/\">traveling salesman problem</a>, which looks for the shortest route through a collection of cities. More specifically, superpermutations are connected to the <a href=\"https://www.quantamagazine.org/one-way-salesman-finds-fast-path-home-20171005/\">“asymmetric” traveling salesman problem</a>, in which each path between two cities has a cost (which is not necessarily the same in both directions), and the goal is to find the least expensive route through all the cities.</p>\r\n<p>The translation is simple: Think of each permutation as a “city” and imagine a path from each permutation to each other permutation. In the superpermutation problem, we want the shortest possible sequence of digits that lists all the permutations, so the goal is to travel through the permutations in a way that adds as few digits to the starting permutation as possible. So we declare the cost of each path to be simply the number of digits we have to attach to the end of the first permutation to get the second one. In the <em>n&nbsp;</em>= 3 example, for instance, the path from 231 to 312 costs $1, since we just have to add a 2 to the end of 231 to get 312, while the path from 231 to 132 costs $2, since we have to add a 32. With this setup, the least-expensive path through the cities corresponds directly to the shortest superpermutation.</p>\r\n<div id=\"component-5be15ae5c71cb\"><figure data-reactroot=\"\" class=\"mb2 mt1\"><div class=\"relative image mx0\" style=\"padding-top: 190.687%;\"><picture><div><!--[if IE 9]><video style=\"display: none;\"><![endif]--></div><div><!--[if IE 9]></video><![endif]--></div><img class=\"block mxa fit-x fill-h fill-v absolute fit-l fit-t vertical\" alt=\"\" style=\"max-width: 902px;\"></picture><noscript><img class=\"block fit-x fill-h fill-v is-loaded mxa\" alt=\"\" src=\"https://d2r55xnwy6nx47.cloudfront.net/uploads/2018/11/Permutations_560-902x1720.jpg\" style=\"max-width:902px;\"/></noscript></div><figcaption class=\"image__meta mt1\"><!-- react-text: 9 --><!-- /react-text --><div class=\"attribution theme__anchors--solid wysiwyg pangram h6 mb1 fill-h post__aside__attribution\"><p>Lucy Reading-Ikkanda/Quanta Magazine</p>\r\n</div></figcaption></figure></div>\r\n<p>This translation meant that Houston could turn the power of traveling salesman algorithms on the superpermutation problem. The traveling salesman problem is famous as an NP-hard problem, meaning that there’s no efficient algorithm that can solve all cases of it. But there are algorithms that can solve some cases efficiently, and other algorithms that produce good approximate solutions. Houston used one of the latter to produce his 872-digit superpermutation.</p>\r\n<p>Since he produced only an approximate solution, it might not be the very best superpermutation. Mathematicians are now conducting a giant computer search for the shortest superpermutation on six symbols, Pantone said. “We know our search will finish in finite time, but don’t know if that’s one week or a million years,” he said. “There’s no progress bar.”</p>\r\n<h2>The Wrong Order</h2>\r\n<p>By the time of Houston’s work, the anonymous 4chan post had been sitting in its corner of the internet for nearly three years. One mathematician, <a href=\"http://www.njohnston.ca/\" target=\"_blank\">Nathaniel Johnston</a> of Mount Allison University, had noticed a copy of the post on a different website a few days after it was posted — not because he was an anime fan, but because he had typed an assortment of superpermutation-related search terms into Google.</p>\r\n<div id=\"component-5be15ae5c7443\"><aside data-reactroot=\"\" class=\"post__aside mb2 relative mha hide-on-print post__aside--right hide-on-print\"><div class=\"post__aside__pullquote align-c relative align-c\"><div class=\"pullquote theme__text mb2 align-c\"><div class=\"mb1\"><p>I’ve never stopped being interested in [mathematics].</p>\r\n</div></div><cite class=\"o6 block align-c\"><p>Greg Egan</p>\r\n</cite><!-- react-text: 6 --><!-- /react-text --></div></aside></div>\r\n<p>Johnston read the argument and thought it seemed plausible, but he didn’t invest much effort in checking it carefully. At the time, mathematicians believed that the factorial formula for superpermutations was probably correct, and when you think you know the exact answer to a question, a lower bound isn’t very interesting. In other words, the superpermutation research episodes were playing out of order.</p>\r\n<p>Johnston later mentioned the lower bound on a <a href=\"http://www.njohnston.ca/2013/04/the-minimal-superpermutation-problem/\" target=\"_blank\">couple</a> of <a href=\"https://oeis.org/A180632\" target=\"_blank\">websites</a>, but “I don’t think anyone really gave it any particular heed,” Houston said.</p>\r\n<p>Then on September 26 of this year, the mathematician <a href=\"http://math.ucr.edu/home/baez/\" target=\"_blank\">John Baez</a> of the University of California, Riverside, <a href=\"https://twitter.com/johncarlosbaez/status/1045084142151450624\" target=\"_blank\">posted on Twitter</a> about Houston’s 2014 finding, as part of a series of tweets about apparent mathematical patterns that fail. His tweet caught the eye of Egan, who was a mathematics major decades ago, before he launched an award-winning career as a science fiction novelist (his breakthrough 1994 novel, in a happy coincidence, was called <em>Permutation City</em>). “I’ve never stopped being interested in [mathematics],” Egan wrote by email.</p>\r\n<p>Egan wondered if it was possible to construct superpermutations even shorter than Houston’s. He scoured the literature for papers on how to construct short paths through permutation networks, and after a few weeks found exactly what he needed. Within a day or two, he had come up with a new upper bound on the length of the shortest superpermutation for <em>n</em> symbols: <em>n</em>! + (<em>n&nbsp;–&nbsp;</em>1)! + (<em>n&nbsp;–&nbsp;</em>2)! + (<em>n&nbsp;–</em>&nbsp;3)! + <em>n&nbsp;–&nbsp;</em>3. It’s similar to the old factorial formula, but with many terms removed.</p>\r\n<p>“It absolutely smashed the [previous] upper bound,” Houston said.</p>\r\n<p>The anonymous 4chan poster’s lower bound, meanwhile, was tantalizingly close to the new upper bound: It works out to <em>n</em>! + (<em>n&nbsp;–&nbsp;</em>1)! + (<em>n&nbsp;–&nbsp;</em>2)! + <em>n&nbsp;–&nbsp;</em>3. When Egan’s result became public, Johnston reminded other mathematicians about the anonymous poster’s proof, and Houston and Pantone soon showed it was correct. As with Houston’s work, the new lower and upper bounds both come at superpermutations via the traveling salesman problem: The lower bound shows that a route through all the cities must travel along some minimum number of paths that cost more than $1, while the upper bound constructs a specific route for each <em>n</em> that uses only $1 and $2 connections.</p>\r\n<div id=\"component-5be15ae5c7d19\"><aside data-reactroot=\"\" class=\"post__aside mb2 relative hide-on-print post__aside--right hide-on-print\"><h3 class=\"mv0 h5 bold uppercase kern\">Related:</h3><hr class=\"mt1 o2\"><ol class=\"post__aside__list theme__anchors--none pt05\"><li class=\"mv075 flex\"><h5 class=\"mt0 mb025 medium\"><a class=\"theme__accent theme__text-hover\" href=\"/decades-old-graph-problem-yields-to-amateur-mathematician-20180417/\"><span>Decades-Old Graph Problem Yields to Amateur Mathematician</span></a></h5></li><li class=\"mv075 flex\"><h5 class=\"mt0 mb025 medium\"><a class=\"theme__accent theme__text-hover\" href=\"/gunter-ziegler-and-martin-aigner-seek-gods-perfect-math-proofs-20180319/\"><span>In Search of God’s Perfect Proofs</span></a></h5></li><li class=\"mv075 flex\"><h5 class=\"mt0 mb025 medium\"><a class=\"theme__accent theme__text-hover\" href=\"/pentagon-tiling-proof-solves-century-old-math-problem-20170711/\"><span>Pentagon Tiling Proof Solves Century-Old Math Problem</span></a></h5></li></ol></aside></div>\r\n<p>Researchers are now trying to bring the upper and lower bounds together to find a single formula that solves the superpermutation problem. “Probably people are eventually going to completely nail down this puzzle,” Baez predicted. “It’s looking good now.”</p>\r\n<p>For <em>Haruhi</em> fans, Egan’s construction gives explicit instructions for how to watch all possible orderings of season one in just 93,924,230,411 episodes. Viewers could start binge-watching immediately, or they could wait and see whether mathematicians can whittle this number down. The anonymous poster’s lower bound proves that this whittling down couldn’t possibly save more than about 40 million episodes — but that’s enough to get a nice start on season two.</p>",
      "read_in": 3
    },
    {
      "id": 49,
      "topic": {
        "name": "Your pension",
        "slug": "your-pension"
      },
      "author": {
        "name": "default",
        "bio": null,
        "photo": null
      },
      "revisor": {
        "name": "default",
        "bio": null,
        "photo": null
      },
      "created_at": "2018-11-06T10:00:44.070467Z",
      "updated_at": "2018-11-06T10:00:44.070504Z",
      "title": "A generated post 47",
      "slug": "a-generated-post-47",
      "thumbnail": "http://localhost:8000/media/media/blog/RHAS-1900-970_copy.jpg",
      "content": "<h1>Mystery Math Whiz and Novelist Advance Permutation Problem</h1>\r\n\r\n<p>On September 16, 2011, an anime fan posted a math question to the online bulletin board 4chan about the cult classic television series <em>The Melancholy of Haruhi Suzumiya</em>. Season one of the show, which involves time travel, had originally aired in nonchronological order, and a re-broadcast and a DVD version had each further rearranged the episodes. Fans were arguing online about the best order to watch the episodes, and the 4chan poster wondered: If viewers wanted to see the series in every possible order, what is the shortest list of episodes they’d have to watch?</p>\r\n<p>In less than an hour, an anonymous person offered an answer — not a complete solution, but a lower bound on the number of episodes required. The argument, which covered series with any number of episodes, showed that for the 14-episode first season of <em>Haruhi</em>, viewers would have to watch at least 93,884,313,611 episodes to see all possible orderings. “Please look over [the proof] for any loopholes I might have missed,” the anonymous poster wrote.</p>\r\n<p>The proof slipped under the radar of the mathematics community for seven years — apparently only one professional mathematician spotted it at the time, and he didn’t check it carefully. But in a plot twist last month, the Australian science fiction novelist <a href=\"https://www.goodreads.com/author/show/32699.Greg_Egan\" target=\"_blank\">Greg Egan</a> proved a new <a href=\"http://www.gregegan.net/SCIENCE/Superpermutations/Superpermutations.html\" target=\"_blank\">upper bound</a> on the number of episodes required. Egan’s discovery renewed interest in the problem and drew attention to the lower bound posted anonymously in 2011. Both proofs are now being hailed as significant advances on a puzzle mathematicians have been studying for at least 25 years.</p>\r\n<p>Mathematicians quickly verified Egan’s upper bound, which, like the lower bound, applies to series of any length. Then Robin Houston, a mathematician at the data visualization firm Kiln, and <a href=\"http://jaypantone.com/\" target=\"_blank\">Jay Pantone</a> of Marquette University in Milwaukee independently verified the work of the anonymous 4chan poster. “It took a lot of work to try to figure out whether or not it was correct,” Pantone said, since the key ideas hadn’t been expressed particularly clearly.</p>\r\n<p>Now, Houston and Pantone, joined by <a href=\"https://people.clas.ufl.edu/vatter/\" target=\"_blank\">Vince Vatter</a> of the University of Florida in Gainesville, have written up the formal argument. In <a href=\"https://docs.google.com/viewer?a=v&amp;pid=forums&amp;srcid=MTUwMTUxMjExNDk4NTk5NjY5OTkBMDMxNDgwMTA5ODA5OTYyNzcyNDQBVF9leXJHY19Dd0FKATAuMQEBdjI&amp;authuser=0\" target=\"_blank\">their paper</a>, they list the first author as “Anonymous 4chan Poster.”</p>\r\n<p>“It’s a weird situation that this very elegant proof of something that wasn’t previously known was posted in such an unlikely place,” Houston said.</p>\r\n<h2>Permutation Cities</h2>\r\n<p>If a television series has just three episodes, there are six possible orders in which to view them: 123, 132, 213, 231, 312 and 321. You could string these six sequences together to give a list of 18 episodes that includes every ordering, but there’s a much more efficient way to do it: 123121321. A sequence like this one that contains every possible rearrangement (or permutation) of a collection of <em>n</em> symbols is called a “superpermutation.”</p>\r\n<p>In 1993, <a href=\"http://eldar.mathstat.uoguelph.ca/dashlock/\" target=\"_blank\">Daniel Ashlock</a> and Jenett Tillotson <a href=\"https://zbmath.org/?format=complete&amp;q=an:0801.05004\" target=\"_blank\">observed</a> that if you look at the shortest superpermutations for different values of <em>n</em>, a pattern quickly seems to emerge involving factorials — those numbers, written in the form <em>n</em>!, that involve multiplying together all the numbers up to <em>n</em> (for example, 4! = 4 × 3&nbsp; × 2 × 1).</p>\r\n<div id=\"component-5be15ae5c5df7\"><aside data-reactroot=\"\" class=\"post__aside mb2 relative mha hide-on-print post__aside--right hide-on-print\"><div class=\"post__aside__pullquote align-c relative align-c\"><div class=\"pullquote theme__text mb2 align-c\"><div class=\"mb1\"><p>It’s a weird situation that this very elegant proof of something that wasn’t previously known was posted in such an unlikely place.</p>\r\n</div></div><cite class=\"o6 block align-c\"><p>Robin Houston</p>\r\n</cite><!-- react-text: 6 --><!-- /react-text --></div></aside></div>\r\n<p>If your series has just one episode, the shortest superpermutation has length 1! (also known as plain old 1). For a two-episode series, the shortest superpermutation (121) has length 2! + 1!. For three episodes (the example we looked at above), the length works out to 3! + 2! + 1!, and for four episodes (123412314231243121342132413214321), it is 4! + 3! + 2! + 1!. The factorial rule for superpermutations became conventional wisdom (even though no one could prove it was true for every value of <em>n</em>), and mathematicians later confirmed it for <em>n&nbsp;</em>= 5.</p>\r\n<p>Then in 2014, Houston startled mathematicians by <a href=\"https://arxiv.org/abs/1408.5108\" target=\"_blank\">showing that for <em>n&nbsp;</em>= 6</a>, the pattern breaks down. The factorial rule predicts that to watch six episodes in every possible order should require 873 episodes, but Houston found a way to do it in 872. And since there is a simple way to convert a short superpermutation on <em>n</em> symbols into a short superpermutation on <em>n&nbsp;</em>+ 1 symbols, Houston’s example meant that the factorial rule fails for every value of <em>n</em> above 6 too.</p>\r\n<p>Houston’s construction works by translating the superpermutation problem into the famous <a href=\"https://www.quantamagazine.org/tag/traveling-salesman-problem/\">traveling salesman problem</a>, which looks for the shortest route through a collection of cities. More specifically, superpermutations are connected to the <a href=\"https://www.quantamagazine.org/one-way-salesman-finds-fast-path-home-20171005/\">“asymmetric” traveling salesman problem</a>, in which each path between two cities has a cost (which is not necessarily the same in both directions), and the goal is to find the least expensive route through all the cities.</p>\r\n<p>The translation is simple: Think of each permutation as a “city” and imagine a path from each permutation to each other permutation. In the superpermutation problem, we want the shortest possible sequence of digits that lists all the permutations, so the goal is to travel through the permutations in a way that adds as few digits to the starting permutation as possible. So we declare the cost of each path to be simply the number of digits we have to attach to the end of the first permutation to get the second one. In the <em>n&nbsp;</em>= 3 example, for instance, the path from 231 to 312 costs $1, since we just have to add a 2 to the end of 231 to get 312, while the path from 231 to 132 costs $2, since we have to add a 32. With this setup, the least-expensive path through the cities corresponds directly to the shortest superpermutation.</p>\r\n<div id=\"component-5be15ae5c71cb\"><figure data-reactroot=\"\" class=\"mb2 mt1\"><div class=\"relative image mx0\" style=\"padding-top: 190.687%;\"><picture><div><!--[if IE 9]><video style=\"display: none;\"><![endif]--></div><div><!--[if IE 9]></video><![endif]--></div><img class=\"block mxa fit-x fill-h fill-v absolute fit-l fit-t vertical\" alt=\"\" style=\"max-width: 902px;\"></picture><noscript><img class=\"block fit-x fill-h fill-v is-loaded mxa\" alt=\"\" src=\"https://d2r55xnwy6nx47.cloudfront.net/uploads/2018/11/Permutations_560-902x1720.jpg\" style=\"max-width:902px;\"/></noscript></div><figcaption class=\"image__meta mt1\"><!-- react-text: 9 --><!-- /react-text --><div class=\"attribution theme__anchors--solid wysiwyg pangram h6 mb1 fill-h post__aside__attribution\"><p>Lucy Reading-Ikkanda/Quanta Magazine</p>\r\n</div></figcaption></figure></div>\r\n<p>This translation meant that Houston could turn the power of traveling salesman algorithms on the superpermutation problem. The traveling salesman problem is famous as an NP-hard problem, meaning that there’s no efficient algorithm that can solve all cases of it. But there are algorithms that can solve some cases efficiently, and other algorithms that produce good approximate solutions. Houston used one of the latter to produce his 872-digit superpermutation.</p>\r\n<p>Since he produced only an approximate solution, it might not be the very best superpermutation. Mathematicians are now conducting a giant computer search for the shortest superpermutation on six symbols, Pantone said. “We know our search will finish in finite time, but don’t know if that’s one week or a million years,” he said. “There’s no progress bar.”</p>\r\n<h2>The Wrong Order</h2>\r\n<p>By the time of Houston’s work, the anonymous 4chan post had been sitting in its corner of the internet for nearly three years. One mathematician, <a href=\"http://www.njohnston.ca/\" target=\"_blank\">Nathaniel Johnston</a> of Mount Allison University, had noticed a copy of the post on a different website a few days after it was posted — not because he was an anime fan, but because he had typed an assortment of superpermutation-related search terms into Google.</p>\r\n<div id=\"component-5be15ae5c7443\"><aside data-reactroot=\"\" class=\"post__aside mb2 relative mha hide-on-print post__aside--right hide-on-print\"><div class=\"post__aside__pullquote align-c relative align-c\"><div class=\"pullquote theme__text mb2 align-c\"><div class=\"mb1\"><p>I’ve never stopped being interested in [mathematics].</p>\r\n</div></div><cite class=\"o6 block align-c\"><p>Greg Egan</p>\r\n</cite><!-- react-text: 6 --><!-- /react-text --></div></aside></div>\r\n<p>Johnston read the argument and thought it seemed plausible, but he didn’t invest much effort in checking it carefully. At the time, mathematicians believed that the factorial formula for superpermutations was probably correct, and when you think you know the exact answer to a question, a lower bound isn’t very interesting. In other words, the superpermutation research episodes were playing out of order.</p>\r\n<p>Johnston later mentioned the lower bound on a <a href=\"http://www.njohnston.ca/2013/04/the-minimal-superpermutation-problem/\" target=\"_blank\">couple</a> of <a href=\"https://oeis.org/A180632\" target=\"_blank\">websites</a>, but “I don’t think anyone really gave it any particular heed,” Houston said.</p>\r\n<p>Then on September 26 of this year, the mathematician <a href=\"http://math.ucr.edu/home/baez/\" target=\"_blank\">John Baez</a> of the University of California, Riverside, <a href=\"https://twitter.com/johncarlosbaez/status/1045084142151450624\" target=\"_blank\">posted on Twitter</a> about Houston’s 2014 finding, as part of a series of tweets about apparent mathematical patterns that fail. His tweet caught the eye of Egan, who was a mathematics major decades ago, before he launched an award-winning career as a science fiction novelist (his breakthrough 1994 novel, in a happy coincidence, was called <em>Permutation City</em>). “I’ve never stopped being interested in [mathematics],” Egan wrote by email.</p>\r\n<p>Egan wondered if it was possible to construct superpermutations even shorter than Houston’s. He scoured the literature for papers on how to construct short paths through permutation networks, and after a few weeks found exactly what he needed. Within a day or two, he had come up with a new upper bound on the length of the shortest superpermutation for <em>n</em> symbols: <em>n</em>! + (<em>n&nbsp;–&nbsp;</em>1)! + (<em>n&nbsp;–&nbsp;</em>2)! + (<em>n&nbsp;–</em>&nbsp;3)! + <em>n&nbsp;–&nbsp;</em>3. It’s similar to the old factorial formula, but with many terms removed.</p>\r\n<p>“It absolutely smashed the [previous] upper bound,” Houston said.</p>\r\n<p>The anonymous 4chan poster’s lower bound, meanwhile, was tantalizingly close to the new upper bound: It works out to <em>n</em>! + (<em>n&nbsp;–&nbsp;</em>1)! + (<em>n&nbsp;–&nbsp;</em>2)! + <em>n&nbsp;–&nbsp;</em>3. When Egan’s result became public, Johnston reminded other mathematicians about the anonymous poster’s proof, and Houston and Pantone soon showed it was correct. As with Houston’s work, the new lower and upper bounds both come at superpermutations via the traveling salesman problem: The lower bound shows that a route through all the cities must travel along some minimum number of paths that cost more than $1, while the upper bound constructs a specific route for each <em>n</em> that uses only $1 and $2 connections.</p>\r\n<div id=\"component-5be15ae5c7d19\"><aside data-reactroot=\"\" class=\"post__aside mb2 relative hide-on-print post__aside--right hide-on-print\"><h3 class=\"mv0 h5 bold uppercase kern\">Related:</h3><hr class=\"mt1 o2\"><ol class=\"post__aside__list theme__anchors--none pt05\"><li class=\"mv075 flex\"><h5 class=\"mt0 mb025 medium\"><a class=\"theme__accent theme__text-hover\" href=\"/decades-old-graph-problem-yields-to-amateur-mathematician-20180417/\"><span>Decades-Old Graph Problem Yields to Amateur Mathematician</span></a></h5></li><li class=\"mv075 flex\"><h5 class=\"mt0 mb025 medium\"><a class=\"theme__accent theme__text-hover\" href=\"/gunter-ziegler-and-martin-aigner-seek-gods-perfect-math-proofs-20180319/\"><span>In Search of God’s Perfect Proofs</span></a></h5></li><li class=\"mv075 flex\"><h5 class=\"mt0 mb025 medium\"><a class=\"theme__accent theme__text-hover\" href=\"/pentagon-tiling-proof-solves-century-old-math-problem-20170711/\"><span>Pentagon Tiling Proof Solves Century-Old Math Problem</span></a></h5></li></ol></aside></div>\r\n<p>Researchers are now trying to bring the upper and lower bounds together to find a single formula that solves the superpermutation problem. “Probably people are eventually going to completely nail down this puzzle,” Baez predicted. “It’s looking good now.”</p>\r\n<p>For <em>Haruhi</em> fans, Egan’s construction gives explicit instructions for how to watch all possible orderings of season one in just 93,924,230,411 episodes. Viewers could start binge-watching immediately, or they could wait and see whether mathematicians can whittle this number down. The anonymous poster’s lower bound proves that this whittling down couldn’t possibly save more than about 40 million episodes — but that’s enough to get a nice start on season two.</p>",
      "read_in": 3
    },
    {
      "id": 48,
      "topic": {
        "name": "Your pension",
        "slug": "your-pension"
      },
      "author": {
        "name": "default",
        "bio": null,
        "photo": null
      },
      "revisor": {
        "name": "default",
        "bio": null,
        "photo": null
      },
      "created_at": "2018-11-06T10:00:44.067883Z",
      "updated_at": "2018-11-06T10:00:44.067918Z",
      "title": "A generated post 46",
      "slug": "a-generated-post-46",
      "thumbnail": "http://localhost:8000/media/media/blog/RHAS-1900-970_copy.jpg",
      "content": "<h1>Mystery Math Whiz and Novelist Advance Permutation Problem</h1>\r\n\r\n<p>On September 16, 2011, an anime fan posted a math question to the online bulletin board 4chan about the cult classic television series <em>The Melancholy of Haruhi Suzumiya</em>. Season one of the show, which involves time travel, had originally aired in nonchronological order, and a re-broadcast and a DVD version had each further rearranged the episodes. Fans were arguing online about the best order to watch the episodes, and the 4chan poster wondered: If viewers wanted to see the series in every possible order, what is the shortest list of episodes they’d have to watch?</p>\r\n<p>In less than an hour, an anonymous person offered an answer — not a complete solution, but a lower bound on the number of episodes required. The argument, which covered series with any number of episodes, showed that for the 14-episode first season of <em>Haruhi</em>, viewers would have to watch at least 93,884,313,611 episodes to see all possible orderings. “Please look over [the proof] for any loopholes I might have missed,” the anonymous poster wrote.</p>\r\n<p>The proof slipped under the radar of the mathematics community for seven years — apparently only one professional mathematician spotted it at the time, and he didn’t check it carefully. But in a plot twist last month, the Australian science fiction novelist <a href=\"https://www.goodreads.com/author/show/32699.Greg_Egan\" target=\"_blank\">Greg Egan</a> proved a new <a href=\"http://www.gregegan.net/SCIENCE/Superpermutations/Superpermutations.html\" target=\"_blank\">upper bound</a> on the number of episodes required. Egan’s discovery renewed interest in the problem and drew attention to the lower bound posted anonymously in 2011. Both proofs are now being hailed as significant advances on a puzzle mathematicians have been studying for at least 25 years.</p>\r\n<p>Mathematicians quickly verified Egan’s upper bound, which, like the lower bound, applies to series of any length. Then Robin Houston, a mathematician at the data visualization firm Kiln, and <a href=\"http://jaypantone.com/\" target=\"_blank\">Jay Pantone</a> of Marquette University in Milwaukee independently verified the work of the anonymous 4chan poster. “It took a lot of work to try to figure out whether or not it was correct,” Pantone said, since the key ideas hadn’t been expressed particularly clearly.</p>\r\n<p>Now, Houston and Pantone, joined by <a href=\"https://people.clas.ufl.edu/vatter/\" target=\"_blank\">Vince Vatter</a> of the University of Florida in Gainesville, have written up the formal argument. In <a href=\"https://docs.google.com/viewer?a=v&amp;pid=forums&amp;srcid=MTUwMTUxMjExNDk4NTk5NjY5OTkBMDMxNDgwMTA5ODA5OTYyNzcyNDQBVF9leXJHY19Dd0FKATAuMQEBdjI&amp;authuser=0\" target=\"_blank\">their paper</a>, they list the first author as “Anonymous 4chan Poster.”</p>\r\n<p>“It’s a weird situation that this very elegant proof of something that wasn’t previously known was posted in such an unlikely place,” Houston said.</p>\r\n<h2>Permutation Cities</h2>\r\n<p>If a television series has just three episodes, there are six possible orders in which to view them: 123, 132, 213, 231, 312 and 321. You could string these six sequences together to give a list of 18 episodes that includes every ordering, but there’s a much more efficient way to do it: 123121321. A sequence like this one that contains every possible rearrangement (or permutation) of a collection of <em>n</em> symbols is called a “superpermutation.”</p>\r\n<p>In 1993, <a href=\"http://eldar.mathstat.uoguelph.ca/dashlock/\" target=\"_blank\">Daniel Ashlock</a> and Jenett Tillotson <a href=\"https://zbmath.org/?format=complete&amp;q=an:0801.05004\" target=\"_blank\">observed</a> that if you look at the shortest superpermutations for different values of <em>n</em>, a pattern quickly seems to emerge involving factorials — those numbers, written in the form <em>n</em>!, that involve multiplying together all the numbers up to <em>n</em> (for example, 4! = 4 × 3&nbsp; × 2 × 1).</p>\r\n<div id=\"component-5be15ae5c5df7\"><aside data-reactroot=\"\" class=\"post__aside mb2 relative mha hide-on-print post__aside--right hide-on-print\"><div class=\"post__aside__pullquote align-c relative align-c\"><div class=\"pullquote theme__text mb2 align-c\"><div class=\"mb1\"><p>It’s a weird situation that this very elegant proof of something that wasn’t previously known was posted in such an unlikely place.</p>\r\n</div></div><cite class=\"o6 block align-c\"><p>Robin Houston</p>\r\n</cite><!-- react-text: 6 --><!-- /react-text --></div></aside></div>\r\n<p>If your series has just one episode, the shortest superpermutation has length 1! (also known as plain old 1). For a two-episode series, the shortest superpermutation (121) has length 2! + 1!. For three episodes (the example we looked at above), the length works out to 3! + 2! + 1!, and for four episodes (123412314231243121342132413214321), it is 4! + 3! + 2! + 1!. The factorial rule for superpermutations became conventional wisdom (even though no one could prove it was true for every value of <em>n</em>), and mathematicians later confirmed it for <em>n&nbsp;</em>= 5.</p>\r\n<p>Then in 2014, Houston startled mathematicians by <a href=\"https://arxiv.org/abs/1408.5108\" target=\"_blank\">showing that for <em>n&nbsp;</em>= 6</a>, the pattern breaks down. The factorial rule predicts that to watch six episodes in every possible order should require 873 episodes, but Houston found a way to do it in 872. And since there is a simple way to convert a short superpermutation on <em>n</em> symbols into a short superpermutation on <em>n&nbsp;</em>+ 1 symbols, Houston’s example meant that the factorial rule fails for every value of <em>n</em> above 6 too.</p>\r\n<p>Houston’s construction works by translating the superpermutation problem into the famous <a href=\"https://www.quantamagazine.org/tag/traveling-salesman-problem/\">traveling salesman problem</a>, which looks for the shortest route through a collection of cities. More specifically, superpermutations are connected to the <a href=\"https://www.quantamagazine.org/one-way-salesman-finds-fast-path-home-20171005/\">“asymmetric” traveling salesman problem</a>, in which each path between two cities has a cost (which is not necessarily the same in both directions), and the goal is to find the least expensive route through all the cities.</p>\r\n<p>The translation is simple: Think of each permutation as a “city” and imagine a path from each permutation to each other permutation. In the superpermutation problem, we want the shortest possible sequence of digits that lists all the permutations, so the goal is to travel through the permutations in a way that adds as few digits to the starting permutation as possible. So we declare the cost of each path to be simply the number of digits we have to attach to the end of the first permutation to get the second one. In the <em>n&nbsp;</em>= 3 example, for instance, the path from 231 to 312 costs $1, since we just have to add a 2 to the end of 231 to get 312, while the path from 231 to 132 costs $2, since we have to add a 32. With this setup, the least-expensive path through the cities corresponds directly to the shortest superpermutation.</p>\r\n<div id=\"component-5be15ae5c71cb\"><figure data-reactroot=\"\" class=\"mb2 mt1\"><div class=\"relative image mx0\" style=\"padding-top: 190.687%;\"><picture><div><!--[if IE 9]><video style=\"display: none;\"><![endif]--></div><div><!--[if IE 9]></video><![endif]--></div><img class=\"block mxa fit-x fill-h fill-v absolute fit-l fit-t vertical\" alt=\"\" style=\"max-width: 902px;\"></picture><noscript><img class=\"block fit-x fill-h fill-v is-loaded mxa\" alt=\"\" src=\"https://d2r55xnwy6nx47.cloudfront.net/uploads/2018/11/Permutations_560-902x1720.jpg\" style=\"max-width:902px;\"/></noscript></div><figcaption class=\"image__meta mt1\"><!-- react-text: 9 --><!-- /react-text --><div class=\"attribution theme__anchors--solid wysiwyg pangram h6 mb1 fill-h post__aside__attribution\"><p>Lucy Reading-Ikkanda/Quanta Magazine</p>\r\n</div></figcaption></figure></div>\r\n<p>This translation meant that Houston could turn the power of traveling salesman algorithms on the superpermutation problem. The traveling salesman problem is famous as an NP-hard problem, meaning that there’s no efficient algorithm that can solve all cases of it. But there are algorithms that can solve some cases efficiently, and other algorithms that produce good approximate solutions. Houston used one of the latter to produce his 872-digit superpermutation.</p>\r\n<p>Since he produced only an approximate solution, it might not be the very best superpermutation. Mathematicians are now conducting a giant computer search for the shortest superpermutation on six symbols, Pantone said. “We know our search will finish in finite time, but don’t know if that’s one week or a million years,” he said. “There’s no progress bar.”</p>\r\n<h2>The Wrong Order</h2>\r\n<p>By the time of Houston’s work, the anonymous 4chan post had been sitting in its corner of the internet for nearly three years. One mathematician, <a href=\"http://www.njohnston.ca/\" target=\"_blank\">Nathaniel Johnston</a> of Mount Allison University, had noticed a copy of the post on a different website a few days after it was posted — not because he was an anime fan, but because he had typed an assortment of superpermutation-related search terms into Google.</p>\r\n<div id=\"component-5be15ae5c7443\"><aside data-reactroot=\"\" class=\"post__aside mb2 relative mha hide-on-print post__aside--right hide-on-print\"><div class=\"post__aside__pullquote align-c relative align-c\"><div class=\"pullquote theme__text mb2 align-c\"><div class=\"mb1\"><p>I’ve never stopped being interested in [mathematics].</p>\r\n</div></div><cite class=\"o6 block align-c\"><p>Greg Egan</p>\r\n</cite><!-- react-text: 6 --><!-- /react-text --></div></aside></div>\r\n<p>Johnston read the argument and thought it seemed plausible, but he didn’t invest much effort in checking it carefully. At the time, mathematicians believed that the factorial formula for superpermutations was probably correct, and when you think you know the exact answer to a question, a lower bound isn’t very interesting. In other words, the superpermutation research episodes were playing out of order.</p>\r\n<p>Johnston later mentioned the lower bound on a <a href=\"http://www.njohnston.ca/2013/04/the-minimal-superpermutation-problem/\" target=\"_blank\">couple</a> of <a href=\"https://oeis.org/A180632\" target=\"_blank\">websites</a>, but “I don’t think anyone really gave it any particular heed,” Houston said.</p>\r\n<p>Then on September 26 of this year, the mathematician <a href=\"http://math.ucr.edu/home/baez/\" target=\"_blank\">John Baez</a> of the University of California, Riverside, <a href=\"https://twitter.com/johncarlosbaez/status/1045084142151450624\" target=\"_blank\">posted on Twitter</a> about Houston’s 2014 finding, as part of a series of tweets about apparent mathematical patterns that fail. His tweet caught the eye of Egan, who was a mathematics major decades ago, before he launched an award-winning career as a science fiction novelist (his breakthrough 1994 novel, in a happy coincidence, was called <em>Permutation City</em>). “I’ve never stopped being interested in [mathematics],” Egan wrote by email.</p>\r\n<p>Egan wondered if it was possible to construct superpermutations even shorter than Houston’s. He scoured the literature for papers on how to construct short paths through permutation networks, and after a few weeks found exactly what he needed. Within a day or two, he had come up with a new upper bound on the length of the shortest superpermutation for <em>n</em> symbols: <em>n</em>! + (<em>n&nbsp;–&nbsp;</em>1)! + (<em>n&nbsp;–&nbsp;</em>2)! + (<em>n&nbsp;–</em>&nbsp;3)! + <em>n&nbsp;–&nbsp;</em>3. It’s similar to the old factorial formula, but with many terms removed.</p>\r\n<p>“It absolutely smashed the [previous] upper bound,” Houston said.</p>\r\n<p>The anonymous 4chan poster’s lower bound, meanwhile, was tantalizingly close to the new upper bound: It works out to <em>n</em>! + (<em>n&nbsp;–&nbsp;</em>1)! + (<em>n&nbsp;–&nbsp;</em>2)! + <em>n&nbsp;–&nbsp;</em>3. When Egan’s result became public, Johnston reminded other mathematicians about the anonymous poster’s proof, and Houston and Pantone soon showed it was correct. As with Houston’s work, the new lower and upper bounds both come at superpermutations via the traveling salesman problem: The lower bound shows that a route through all the cities must travel along some minimum number of paths that cost more than $1, while the upper bound constructs a specific route for each <em>n</em> that uses only $1 and $2 connections.</p>\r\n<div id=\"component-5be15ae5c7d19\"><aside data-reactroot=\"\" class=\"post__aside mb2 relative hide-on-print post__aside--right hide-on-print\"><h3 class=\"mv0 h5 bold uppercase kern\">Related:</h3><hr class=\"mt1 o2\"><ol class=\"post__aside__list theme__anchors--none pt05\"><li class=\"mv075 flex\"><h5 class=\"mt0 mb025 medium\"><a class=\"theme__accent theme__text-hover\" href=\"/decades-old-graph-problem-yields-to-amateur-mathematician-20180417/\"><span>Decades-Old Graph Problem Yields to Amateur Mathematician</span></a></h5></li><li class=\"mv075 flex\"><h5 class=\"mt0 mb025 medium\"><a class=\"theme__accent theme__text-hover\" href=\"/gunter-ziegler-and-martin-aigner-seek-gods-perfect-math-proofs-20180319/\"><span>In Search of God’s Perfect Proofs</span></a></h5></li><li class=\"mv075 flex\"><h5 class=\"mt0 mb025 medium\"><a class=\"theme__accent theme__text-hover\" href=\"/pentagon-tiling-proof-solves-century-old-math-problem-20170711/\"><span>Pentagon Tiling Proof Solves Century-Old Math Problem</span></a></h5></li></ol></aside></div>\r\n<p>Researchers are now trying to bring the upper and lower bounds together to find a single formula that solves the superpermutation problem. “Probably people are eventually going to completely nail down this puzzle,” Baez predicted. “It’s looking good now.”</p>\r\n<p>For <em>Haruhi</em> fans, Egan’s construction gives explicit instructions for how to watch all possible orderings of season one in just 93,924,230,411 episodes. Viewers could start binge-watching immediately, or they could wait and see whether mathematicians can whittle this number down. The anonymous poster’s lower bound proves that this whittling down couldn’t possibly save more than about 40 million episodes — but that’s enough to get a nice start on season two.</p>",
      "read_in": 3
    },
    {
      "id": 47,
      "topic": {
        "name": "Your pension",
        "slug": "your-pension"
      },
      "author": {
        "name": "default",
        "bio": null,
        "photo": null
      },
      "revisor": {
        "name": "default",
        "bio": null,
        "photo": null
      },
      "created_at": "2018-11-06T10:00:44.065176Z",
      "updated_at": "2018-11-06T10:00:44.065216Z",
      "title": "A generated post 45",
      "slug": "a-generated-post-45",
      "thumbnail": "http://localhost:8000/media/media/blog/RHAS-1900-970_copy.jpg",
      "content": "<h1>Mystery Math Whiz and Novelist Advance Permutation Problem</h1>\r\n\r\n<p>On September 16, 2011, an anime fan posted a math question to the online bulletin board 4chan about the cult classic television series <em>The Melancholy of Haruhi Suzumiya</em>. Season one of the show, which involves time travel, had originally aired in nonchronological order, and a re-broadcast and a DVD version had each further rearranged the episodes. Fans were arguing online about the best order to watch the episodes, and the 4chan poster wondered: If viewers wanted to see the series in every possible order, what is the shortest list of episodes they’d have to watch?</p>\r\n<p>In less than an hour, an anonymous person offered an answer — not a complete solution, but a lower bound on the number of episodes required. The argument, which covered series with any number of episodes, showed that for the 14-episode first season of <em>Haruhi</em>, viewers would have to watch at least 93,884,313,611 episodes to see all possible orderings. “Please look over [the proof] for any loopholes I might have missed,” the anonymous poster wrote.</p>\r\n<p>The proof slipped under the radar of the mathematics community for seven years — apparently only one professional mathematician spotted it at the time, and he didn’t check it carefully. But in a plot twist last month, the Australian science fiction novelist <a href=\"https://www.goodreads.com/author/show/32699.Greg_Egan\" target=\"_blank\">Greg Egan</a> proved a new <a href=\"http://www.gregegan.net/SCIENCE/Superpermutations/Superpermutations.html\" target=\"_blank\">upper bound</a> on the number of episodes required. Egan’s discovery renewed interest in the problem and drew attention to the lower bound posted anonymously in 2011. Both proofs are now being hailed as significant advances on a puzzle mathematicians have been studying for at least 25 years.</p>\r\n<p>Mathematicians quickly verified Egan’s upper bound, which, like the lower bound, applies to series of any length. Then Robin Houston, a mathematician at the data visualization firm Kiln, and <a href=\"http://jaypantone.com/\" target=\"_blank\">Jay Pantone</a> of Marquette University in Milwaukee independently verified the work of the anonymous 4chan poster. “It took a lot of work to try to figure out whether or not it was correct,” Pantone said, since the key ideas hadn’t been expressed particularly clearly.</p>\r\n<p>Now, Houston and Pantone, joined by <a href=\"https://people.clas.ufl.edu/vatter/\" target=\"_blank\">Vince Vatter</a> of the University of Florida in Gainesville, have written up the formal argument. In <a href=\"https://docs.google.com/viewer?a=v&amp;pid=forums&amp;srcid=MTUwMTUxMjExNDk4NTk5NjY5OTkBMDMxNDgwMTA5ODA5OTYyNzcyNDQBVF9leXJHY19Dd0FKATAuMQEBdjI&amp;authuser=0\" target=\"_blank\">their paper</a>, they list the first author as “Anonymous 4chan Poster.”</p>\r\n<p>“It’s a weird situation that this very elegant proof of something that wasn’t previously known was posted in such an unlikely place,” Houston said.</p>\r\n<h2>Permutation Cities</h2>\r\n<p>If a television series has just three episodes, there are six possible orders in which to view them: 123, 132, 213, 231, 312 and 321. You could string these six sequences together to give a list of 18 episodes that includes every ordering, but there’s a much more efficient way to do it: 123121321. A sequence like this one that contains every possible rearrangement (or permutation) of a collection of <em>n</em> symbols is called a “superpermutation.”</p>\r\n<p>In 1993, <a href=\"http://eldar.mathstat.uoguelph.ca/dashlock/\" target=\"_blank\">Daniel Ashlock</a> and Jenett Tillotson <a href=\"https://zbmath.org/?format=complete&amp;q=an:0801.05004\" target=\"_blank\">observed</a> that if you look at the shortest superpermutations for different values of <em>n</em>, a pattern quickly seems to emerge involving factorials — those numbers, written in the form <em>n</em>!, that involve multiplying together all the numbers up to <em>n</em> (for example, 4! = 4 × 3&nbsp; × 2 × 1).</p>\r\n<div id=\"component-5be15ae5c5df7\"><aside data-reactroot=\"\" class=\"post__aside mb2 relative mha hide-on-print post__aside--right hide-on-print\"><div class=\"post__aside__pullquote align-c relative align-c\"><div class=\"pullquote theme__text mb2 align-c\"><div class=\"mb1\"><p>It’s a weird situation that this very elegant proof of something that wasn’t previously known was posted in such an unlikely place.</p>\r\n</div></div><cite class=\"o6 block align-c\"><p>Robin Houston</p>\r\n</cite><!-- react-text: 6 --><!-- /react-text --></div></aside></div>\r\n<p>If your series has just one episode, the shortest superpermutation has length 1! (also known as plain old 1). For a two-episode series, the shortest superpermutation (121) has length 2! + 1!. For three episodes (the example we looked at above), the length works out to 3! + 2! + 1!, and for four episodes (123412314231243121342132413214321), it is 4! + 3! + 2! + 1!. The factorial rule for superpermutations became conventional wisdom (even though no one could prove it was true for every value of <em>n</em>), and mathematicians later confirmed it for <em>n&nbsp;</em>= 5.</p>\r\n<p>Then in 2014, Houston startled mathematicians by <a href=\"https://arxiv.org/abs/1408.5108\" target=\"_blank\">showing that for <em>n&nbsp;</em>= 6</a>, the pattern breaks down. The factorial rule predicts that to watch six episodes in every possible order should require 873 episodes, but Houston found a way to do it in 872. And since there is a simple way to convert a short superpermutation on <em>n</em> symbols into a short superpermutation on <em>n&nbsp;</em>+ 1 symbols, Houston’s example meant that the factorial rule fails for every value of <em>n</em> above 6 too.</p>\r\n<p>Houston’s construction works by translating the superpermutation problem into the famous <a href=\"https://www.quantamagazine.org/tag/traveling-salesman-problem/\">traveling salesman problem</a>, which looks for the shortest route through a collection of cities. More specifically, superpermutations are connected to the <a href=\"https://www.quantamagazine.org/one-way-salesman-finds-fast-path-home-20171005/\">“asymmetric” traveling salesman problem</a>, in which each path between two cities has a cost (which is not necessarily the same in both directions), and the goal is to find the least expensive route through all the cities.</p>\r\n<p>The translation is simple: Think of each permutation as a “city” and imagine a path from each permutation to each other permutation. In the superpermutation problem, we want the shortest possible sequence of digits that lists all the permutations, so the goal is to travel through the permutations in a way that adds as few digits to the starting permutation as possible. So we declare the cost of each path to be simply the number of digits we have to attach to the end of the first permutation to get the second one. In the <em>n&nbsp;</em>= 3 example, for instance, the path from 231 to 312 costs $1, since we just have to add a 2 to the end of 231 to get 312, while the path from 231 to 132 costs $2, since we have to add a 32. With this setup, the least-expensive path through the cities corresponds directly to the shortest superpermutation.</p>\r\n<div id=\"component-5be15ae5c71cb\"><figure data-reactroot=\"\" class=\"mb2 mt1\"><div class=\"relative image mx0\" style=\"padding-top: 190.687%;\"><picture><div><!--[if IE 9]><video style=\"display: none;\"><![endif]--></div><div><!--[if IE 9]></video><![endif]--></div><img class=\"block mxa fit-x fill-h fill-v absolute fit-l fit-t vertical\" alt=\"\" style=\"max-width: 902px;\"></picture><noscript><img class=\"block fit-x fill-h fill-v is-loaded mxa\" alt=\"\" src=\"https://d2r55xnwy6nx47.cloudfront.net/uploads/2018/11/Permutations_560-902x1720.jpg\" style=\"max-width:902px;\"/></noscript></div><figcaption class=\"image__meta mt1\"><!-- react-text: 9 --><!-- /react-text --><div class=\"attribution theme__anchors--solid wysiwyg pangram h6 mb1 fill-h post__aside__attribution\"><p>Lucy Reading-Ikkanda/Quanta Magazine</p>\r\n</div></figcaption></figure></div>\r\n<p>This translation meant that Houston could turn the power of traveling salesman algorithms on the superpermutation problem. The traveling salesman problem is famous as an NP-hard problem, meaning that there’s no efficient algorithm that can solve all cases of it. But there are algorithms that can solve some cases efficiently, and other algorithms that produce good approximate solutions. Houston used one of the latter to produce his 872-digit superpermutation.</p>\r\n<p>Since he produced only an approximate solution, it might not be the very best superpermutation. Mathematicians are now conducting a giant computer search for the shortest superpermutation on six symbols, Pantone said. “We know our search will finish in finite time, but don’t know if that’s one week or a million years,” he said. “There’s no progress bar.”</p>\r\n<h2>The Wrong Order</h2>\r\n<p>By the time of Houston’s work, the anonymous 4chan post had been sitting in its corner of the internet for nearly three years. One mathematician, <a href=\"http://www.njohnston.ca/\" target=\"_blank\">Nathaniel Johnston</a> of Mount Allison University, had noticed a copy of the post on a different website a few days after it was posted — not because he was an anime fan, but because he had typed an assortment of superpermutation-related search terms into Google.</p>\r\n<div id=\"component-5be15ae5c7443\"><aside data-reactroot=\"\" class=\"post__aside mb2 relative mha hide-on-print post__aside--right hide-on-print\"><div class=\"post__aside__pullquote align-c relative align-c\"><div class=\"pullquote theme__text mb2 align-c\"><div class=\"mb1\"><p>I’ve never stopped being interested in [mathematics].</p>\r\n</div></div><cite class=\"o6 block align-c\"><p>Greg Egan</p>\r\n</cite><!-- react-text: 6 --><!-- /react-text --></div></aside></div>\r\n<p>Johnston read the argument and thought it seemed plausible, but he didn’t invest much effort in checking it carefully. At the time, mathematicians believed that the factorial formula for superpermutations was probably correct, and when you think you know the exact answer to a question, a lower bound isn’t very interesting. In other words, the superpermutation research episodes were playing out of order.</p>\r\n<p>Johnston later mentioned the lower bound on a <a href=\"http://www.njohnston.ca/2013/04/the-minimal-superpermutation-problem/\" target=\"_blank\">couple</a> of <a href=\"https://oeis.org/A180632\" target=\"_blank\">websites</a>, but “I don’t think anyone really gave it any particular heed,” Houston said.</p>\r\n<p>Then on September 26 of this year, the mathematician <a href=\"http://math.ucr.edu/home/baez/\" target=\"_blank\">John Baez</a> of the University of California, Riverside, <a href=\"https://twitter.com/johncarlosbaez/status/1045084142151450624\" target=\"_blank\">posted on Twitter</a> about Houston’s 2014 finding, as part of a series of tweets about apparent mathematical patterns that fail. His tweet caught the eye of Egan, who was a mathematics major decades ago, before he launched an award-winning career as a science fiction novelist (his breakthrough 1994 novel, in a happy coincidence, was called <em>Permutation City</em>). “I’ve never stopped being interested in [mathematics],” Egan wrote by email.</p>\r\n<p>Egan wondered if it was possible to construct superpermutations even shorter than Houston’s. He scoured the literature for papers on how to construct short paths through permutation networks, and after a few weeks found exactly what he needed. Within a day or two, he had come up with a new upper bound on the length of the shortest superpermutation for <em>n</em> symbols: <em>n</em>! + (<em>n&nbsp;–&nbsp;</em>1)! + (<em>n&nbsp;–&nbsp;</em>2)! + (<em>n&nbsp;–</em>&nbsp;3)! + <em>n&nbsp;–&nbsp;</em>3. It’s similar to the old factorial formula, but with many terms removed.</p>\r\n<p>“It absolutely smashed the [previous] upper bound,” Houston said.</p>\r\n<p>The anonymous 4chan poster’s lower bound, meanwhile, was tantalizingly close to the new upper bound: It works out to <em>n</em>! + (<em>n&nbsp;–&nbsp;</em>1)! + (<em>n&nbsp;–&nbsp;</em>2)! + <em>n&nbsp;–&nbsp;</em>3. When Egan’s result became public, Johnston reminded other mathematicians about the anonymous poster’s proof, and Houston and Pantone soon showed it was correct. As with Houston’s work, the new lower and upper bounds both come at superpermutations via the traveling salesman problem: The lower bound shows that a route through all the cities must travel along some minimum number of paths that cost more than $1, while the upper bound constructs a specific route for each <em>n</em> that uses only $1 and $2 connections.</p>\r\n<div id=\"component-5be15ae5c7d19\"><aside data-reactroot=\"\" class=\"post__aside mb2 relative hide-on-print post__aside--right hide-on-print\"><h3 class=\"mv0 h5 bold uppercase kern\">Related:</h3><hr class=\"mt1 o2\"><ol class=\"post__aside__list theme__anchors--none pt05\"><li class=\"mv075 flex\"><h5 class=\"mt0 mb025 medium\"><a class=\"theme__accent theme__text-hover\" href=\"/decades-old-graph-problem-yields-to-amateur-mathematician-20180417/\"><span>Decades-Old Graph Problem Yields to Amateur Mathematician</span></a></h5></li><li class=\"mv075 flex\"><h5 class=\"mt0 mb025 medium\"><a class=\"theme__accent theme__text-hover\" href=\"/gunter-ziegler-and-martin-aigner-seek-gods-perfect-math-proofs-20180319/\"><span>In Search of God’s Perfect Proofs</span></a></h5></li><li class=\"mv075 flex\"><h5 class=\"mt0 mb025 medium\"><a class=\"theme__accent theme__text-hover\" href=\"/pentagon-tiling-proof-solves-century-old-math-problem-20170711/\"><span>Pentagon Tiling Proof Solves Century-Old Math Problem</span></a></h5></li></ol></aside></div>\r\n<p>Researchers are now trying to bring the upper and lower bounds together to find a single formula that solves the superpermutation problem. “Probably people are eventually going to completely nail down this puzzle,” Baez predicted. “It’s looking good now.”</p>\r\n<p>For <em>Haruhi</em> fans, Egan’s construction gives explicit instructions for how to watch all possible orderings of season one in just 93,924,230,411 episodes. Viewers could start binge-watching immediately, or they could wait and see whether mathematicians can whittle this number down. The anonymous poster’s lower bound proves that this whittling down couldn’t possibly save more than about 40 million episodes — but that’s enough to get a nice start on season two.</p>",
      "read_in": 3
    }
  ]
}
