<?xml version="1.0" encoding="utf-8"?>
<!-- Generator: Adobe Illustrator 16.0.0, SVG Export Plug-In . SVG Version: 6.00 Build 0)  -->
<!DOCTYPE svg PUBLIC "-//W3C//DTD SVG 1.1//EN" "http://www.w3.org/Graphics/SVG/1.1/DTD/svg11.dtd">
<svg version="1.1" id="Layer_1" xmlns="http://www.w3.org/2000/svg" xmlns:xlink="http://www.w3.org/1999/xlink" x="0px" y="0px"
	 width="426.6px" height="138.044px" viewBox="212.964 219.41 426.6 138.044" enable-background="new 212.964 219.41 426.6 138.044"
	 xml:space="preserve">
<g>
	<path fill="#1D1D1B" d="M274.611,289.517h-61.647v-12.479l34.119-27.669h-33.324v-14.208h59.637v11.73l-34.586,28.417h35.801
		V289.517z"/>
	<path fill="#1D1D1B" d="M318.261,233.291c19.629,0,32.295,3.786,32.295,19.536v22.621l1.496,14.068h-17.199l-1.542-3.412
		c-4.627,1.683-12.806,4.721-27.014,4.721c-16.592,0-25.098-4.813-25.098-16.498v-1.028c0-10.563,6.169-15.377,31.641-17.667
		c18.041-1.636,18.648-2.523,18.648-4.44v-0.42c0-2.291-2.617-3.459-13.414-3.459c-9.254,0-18.976,1.262-25.659,3.552l-4.907-12.853
		C290.872,236.609,300.313,233.291,318.261,233.291z M314.288,267.363c-12.105,1.215-14.021,2.056-14.021,4.954v1.028
		c0,2.991,2.804,3.552,8.553,3.552c7.196,0,14.396-0.888,22.668-2.57v-9.815C330.553,265.493,330.319,265.773,314.288,267.363z"/>
	<path fill="#1D1D1B" d="M428.884,255.679v33.838h-19.068v-30.146c0-8.787-6.824-11.311-13.741-11.311
		c-7.758,0-12.061,3.131-14.115,5.234l-0.748,0.795v35.427h-19.069V219.41h19.069v21.779c3.178-4.159,9.909-7.898,19.771-7.898
		C414.209,233.291,428.884,239.928,428.884,255.679z"/>
	<path fill="#1D1D1B" d="M472.955,233.291c19.629,0,32.295,3.786,32.295,19.536v22.621l1.496,14.068h-17.199l-1.543-3.412
		c-4.627,1.683-12.805,4.721-27.014,4.721c-16.592,0-25.098-4.813-25.098-16.498v-1.028c0-10.563,6.168-15.377,31.641-17.667
		c18.041-1.636,18.648-2.523,18.648-4.44v-0.42c0-2.291-2.617-3.459-13.414-3.459c-9.254,0-18.975,1.262-25.658,3.552l-4.908-12.853
		C445.566,236.609,455.007,233.291,472.955,233.291z M468.982,267.363c-12.105,1.215-14.021,2.056-14.021,4.954v1.028
		c0,2.991,2.805,3.552,8.553,3.552c7.197,0,14.396-0.888,22.668-2.57v-9.815C485.248,265.493,485.013,265.773,468.982,267.363z"/>
	<path fill="#1D1D1B" d="M565.072,234.88l-2.852,16.592c-3.74-1.168-7.572-1.448-10.283-1.448c-10.422,0-16.031,4.159-16.031,14.488
		v25.005h-19.068v-54.402h15.236l2.385,8.459c3.973-6.59,11.402-9.348,21.031-9.348C559.509,234.226,563.716,234.693,565.072,234.88
		z"/>
	<path fill="#1D1D1B" d="M602.787,233.291c19.629,0,32.295,3.786,32.295,19.536v22.621l1.496,14.068h-17.199l-1.543-3.412
		c-4.627,1.683-12.807,4.721-27.014,4.721c-16.594,0-25.1-4.813-25.1-16.498v-1.028c0-10.563,6.17-15.377,31.643-17.667
		c18.041-1.636,18.646-2.523,18.646-4.44v-0.42c0-2.291-2.615-3.459-13.412-3.459c-9.256,0-18.977,1.262-25.66,3.552l-4.906-12.853
		C575.396,236.609,584.839,233.291,602.787,233.291z M598.812,267.363c-12.104,1.215-14.02,2.056-14.02,4.954v1.028
		c0,2.991,2.803,3.552,8.553,3.552c7.197,0,14.396-0.888,22.668-2.57v-9.815C615.078,265.493,614.843,265.773,598.812,267.363z"/>
</g>
<g>
	<path fill="#1D1D1B" d="M451.527,317.417l-16.254,39.385h-7.197l-11.127-30.631l-0.139-0.938h-0.363l-0.14,0.938l-11.162,30.631
		h-7.197l-16.253-39.385h6.345l13.312,34.092l0.14,0.722h0.366l0.137-0.722l11.907-34.092h5.427l11.909,34.092l0.137,0.722h0.365
		l0.137-0.722l13.311-34.092H451.527z"/>
	<path fill="#1D1D1B" d="M503.119,337.134c0,16.355-12.365,20.32-24.455,20.32c-12.023,0-24.455-3.965-24.455-20.32
		c0-16.354,12.432-20.332,24.455-20.332C490.753,316.802,503.119,320.777,503.119,337.134z M460.25,337.134
		c0,12.437,8.34,15.513,18.414,15.513c10.098,0,18.416-3.076,18.416-15.513c0-12.391-8.318-15.522-18.416-15.522
		C468.589,321.611,460.25,324.744,460.25,337.134z"/>
	<path fill="#1D1D1B" d="M541.328,317.533l-0.924,5.344c-2.4-0.67-4.758-0.961-7.137-0.961c-10.135,0-15.818,5.4-15.818,12.047
		v22.84h-6.039v-39.385h4.889l0.781,8.121c1.912-4.068,6.832-8.697,17.158-8.697C537.191,316.841,539.71,317.201,541.328,317.533z"
		/>
	<path fill="#1D1D1B" d="M558.664,338.723h-4.857v18.079h-6.039v-50.313h6.039v27.518h5.256l20.98-16.588h8.049l-24.348,19.004
		l25.773,20.383h-8.232L558.664,338.723z"/>
	<path fill="#1D1D1B" d="M634.609,324.32c-5.195-1.838-11.383-2.953-18.805-2.953c-7.506,0-14.674,1.23-14.674,6.281
		c0,4.51,5.771,5.062,16.182,6.233c13.773,1.521,22.252,2.854,22.252,11.283c0,8.847-9.506,12.287-22.324,12.287
		c-11.34,0-19.023-2.699-24.713-5.849l2.479-4.127c5.711,2.979,12.922,5.284,22.844,5.284c8.35,0,15.682-1.692,15.682-7.306
		c0-4.801-5.465-5.586-16.584-6.814c-11.836-1.205-21.854-2.24-21.854-10.926c0-8.346,9.502-11.041,21.059-11.041
		c9.48,0,15.895,1.801,20.172,3.318L634.609,324.32z"/>
</g>
</svg>
